module gitlab.com/vderyagin/dfm

go 1.16

require (
	github.com/mattn/go-colorable v0.1.8 // indirect
	github.com/mgutz/ansi v0.0.0-20200706080929-d51e80ef957d
	github.com/onsi/ginkgo v1.16.4 // indirect
	github.com/onsi/gomega v1.13.0 // indirect
	github.com/urfave/cli v1.22.5
	golang.org/x/sys v0.0.0-20210630005230-0f9fa26af87c // indirect
)
